<svg width="24" height="24" viewBox="0 0 24 24" fill="none" xmlns="http://www.w3.org/2000/svg">
<path d="M20 7V19C20 19.55 19.55 20 19 20H7C6.45 20 6 20.45 6 21C6 21.55 6.45 22 7 22H20C21.1 22 22 21.1 22 20V7C22 6.45 21.55 6 21 6C20.45 6 20 6.45 20 7Z" fill="#323232"/>
<path d="M16 2H4C2.9 2 2 2.9 2 4V16C2 17.1 2.9 18 4 18H16C17.1 18 18 17.1 18 16V4C18 2.9 17.1 2 16 2ZM9 16H4V11H9V16ZM16 16H11V11H16V16ZM16 9H4V4H16V9Z" fill="#323232"/>
</svg>
