<svg width="24" height="24" viewBox="0 0 24 24" fill="none" xmlns="http://www.w3.org/2000/svg">
<path d="M18.65 8.35L15.86 11.14C15.54 11.46 15.76 12 16.21 12H18C18 15.31 15.31 18 12 18C11.21 18 10.44 17.85 9.75003 17.56C9.39003 17.41 8.98003 17.52 8.71003 17.79C8.20003 18.3 8.38003 19.16 9.05003 19.43C9.96003 19.8 10.96 20 12 20C16.42 20 20 16.42 20 12H21.79C22.24 12 22.46 11.46 22.14 11.15L19.35 8.36C19.16 8.16 18.84 8.16 18.65 8.35ZM6.00003 12C6.00003 8.69 8.69003 6 12 6C12.79 6 13.56 6.15 14.25 6.44C14.61 6.59 15.02 6.48 15.29 6.21C15.8 5.7 15.62 4.84 14.95 4.57C14.04 4.2 13.04 4 12 4C7.58003 4 4.00003 7.58 4.00003 12H2.21003C1.76003 12 1.54003 12.54 1.86003 12.85L4.65003 15.64C4.85003 15.84 5.16003 15.84 5.36003 15.64L8.15003 12.85C8.46003 12.54 8.24003 12 7.79003 12H6.00003Z" fill="#323232"/>
</svg>
