<svg width="24" height="24" viewBox="0 0 24 24" fill="none" xmlns="http://www.w3.org/2000/svg">
<path d="M9.00014 16.1699L5.53014 12.6999C5.14014 12.3099 4.51014 12.3099 4.12014 12.6999C3.73014 13.0899 3.73014 13.7199 4.12014 14.1099L8.30014 18.2899C8.69014 18.6799 9.32014 18.6799 9.71014 18.2899L20.2901 7.70995C20.6801 7.31995 20.6801 6.68995 20.2901 6.29995C19.9001 5.90995 19.2701 5.90995 18.8801 6.29995L9.00014 16.1699Z" fill="#323232"/>
</svg>
