<svg width="24" height="24" viewBox="0 0 24 24" fill="none" xmlns="http://www.w3.org/2000/svg">
<path d="M14.59 2.59C14.21 2.21 13.7 2 13.17 2H6C4.9 2 4 2.9 4 4V20C4 21.1 4.89 22 5.99 22H18C19.1 22 20 21.1 20 20V8.83C20 8.3 19.79 7.79 19.41 7.42L14.59 2.59ZM15 18H9C8.45 18 8 17.55 8 17C8 16.45 8.45 16 9 16H15C15.55 16 16 16.45 16 17C16 17.55 15.55 18 15 18ZM15 14H9C8.45 14 8 13.55 8 13C8 12.45 8.45 12 9 12H15C15.55 12 16 12.45 16 13C16 13.55 15.55 14 15 14ZM13 8V3.5L18.5 9H14C13.45 9 13 8.55 13 8Z" fill="#323232"/>
</svg>
