<svg width="24" height="24" viewBox="0 0 24 24" fill="none" xmlns="http://www.w3.org/2000/svg">
<path d="M18.92 5.01C18.72 4.42 18.16 4 17.5 4H6.5C5.84 4 5.29 4.42 5.08 5.01L3.11 10.68C3.04 10.89 3 11.11 3 11.34V18.5C3 19.33 3.67 20 4.5 20C5.33 20 6 19.33 6 18.5V18H18V18.5C18 19.32 18.67 20 19.5 20C20.32 20 21 19.33 21 18.5V11.34C21 11.12 20.96 10.89 20.89 10.68L18.92 5.01ZM6.5 15C5.67 15 5 14.33 5 13.5C5 12.67 5.67 12 6.5 12C7.33 12 8 12.67 8 13.5C8 14.33 7.33 15 6.5 15ZM17.5 15C16.67 15 16 14.33 16 13.5C16 12.67 16.67 12 17.5 12C18.33 12 19 12.67 19 13.5C19 14.33 18.33 15 17.5 15ZM5 10L6.27 6.18C6.41 5.78 6.79 5.5 7.22 5.5H16.78C17.21 5.5 17.59 5.78 17.73 6.18L19 10H5Z" fill="#323232"/>
</svg>
