<svg width="24" height="24" viewBox="0 0 24 24" fill="none" xmlns="http://www.w3.org/2000/svg">
<path d="M19 19H3C2.45 19 2 19.45 2 20C2 20.55 2.45 21 3 21H19C19.55 21 20 20.55 20 20C20 19.45 19.55 19 19 19Z" fill="#323232"/>
<path d="M20 3H9V5.4L10.81 6.85C10.93 6.94 11 7.09 11 7.24V11.5C11 11.78 10.78 12 10.5 12H6.5C6.22 12 6 11.78 6 11.5V7.24C6 7.09 6.07 6.94 6.19 6.85L8 5.4V3H6C4.9 3 4 3.9 4 5V13C4 15.21 5.79 17 8 17H14C16.21 17 18 15.21 18 13V10H20C21.1 10 22 9.1 22 8V5C22 3.9 21.1 3 20 3ZM20 8H18V5H20V8Z" fill="#323232"/>
</svg>
