<svg width="24" height="24" viewBox="0 0 24 24" fill="none" xmlns="http://www.w3.org/2000/svg">
<path d="M16 4C16 2.89 16.89 2 18 2C19.11 2 20 2.89 20 4C20 5.11 19.11 6 18 6C16.89 6 16 5.11 16 4ZM20 21V16H21.11C21.79 16 22.27 15.33 22.06 14.68L19.96 8.37C19.68 7.55 18.92 7 18.06 7H17.94C17.08 7 16.31 7.55 16.04 8.37L15.18 10.95C16.26 11.55 17 12.68 17 14V22H19C19.55 22 20 21.55 20 21ZM12.5 11.5C13.33 11.5 14 10.83 14 10C14 9.17 13.33 8.5 12.5 8.5C11.67 8.5 11 9.17 11 10C11 10.83 11.67 11.5 12.5 11.5ZM5.5 6C6.61 6 7.5 5.11 7.5 4C7.5 2.89 6.61 2 5.5 2C4.39 2 3.5 2.89 3.5 4C3.5 5.11 4.39 6 5.5 6ZM7.5 21V15H8C8.55 15 9 14.55 9 14V9C9 7.9 8.1 7 7 7H4C2.9 7 2 7.9 2 9V14C2 14.55 2.45 15 3 15H3.5V21C3.5 21.55 3.95 22 4.5 22H6.5C7.05 22 7.5 21.55 7.5 21ZM10 14V17C10 17.55 10.45 18 11 18V21C11 21.55 11.45 22 12 22H13C13.55 22 14 21.55 14 21V18C14.55 18 15 17.55 15 17V14C15 13.18 14.32 12.5 13.5 12.5H11.5C10.68 12.5 10 13.18 10 14Z" fill="#323232"/>
</svg>
