<svg width="24" height="24" viewBox="0 0 24 24" fill="none" xmlns="http://www.w3.org/2000/svg">
<path d="M15.56 10.81L13.21 13.83L11.65 11.95C11.45 11.7 11.07 11.71 10.87 11.96L9.13 14.19C8.87 14.52 9.11 15 9.52 15H18.5C18.91 15 19.15 14.53 18.9 14.2L16.35 10.81C16.16 10.55 15.76 10.55 15.56 10.81ZM2 5C1.45 5 1 5.45 1 6V21C1 22.1 1.9 23 3 23H18C18.55 23 19 22.55 19 22C19 21.45 18.55 21 18 21H4C3.45 21 3 20.55 3 20V6C3 5.45 2.55 5 2 5ZM21 1H7C5.9 1 5 1.9 5 3V17C5 18.1 5.9 19 7 19H21C22.1 19 23 18.1 23 17V3C23 1.9 22.1 1 21 1ZM20 17H8C7.45 17 7 16.55 7 16V4C7 3.45 7.45 3 8 3H20C20.55 3 21 3.45 21 4V16C21 16.55 20.55 17 20 17Z" fill="#323232"/>
</svg>
