<svg width="24" height="24" viewBox="0 0 24 24" fill="none" xmlns="http://www.w3.org/2000/svg">
<path d="M17.63 5.84C17.27 5.33 16.67 5 16 5L5 5.01C3.9 5.01 3 5.9 3 7V17C3 18.1 3.9 18.99 5 18.99L16 19C16.67 19 17.27 18.67 17.63 18.16L21.59 12.58C21.84 12.23 21.84 11.77 21.59 11.42L17.63 5.84ZM16 17H6C5.45 17 5 16.55 5 16V8C5 7.45 5.45 7 6 7H16L19.55 12L16 17Z" fill="#323232"/>
</svg>
