<svg width="24" height="24" viewBox="0 0 24 24" fill="none" xmlns="http://www.w3.org/2000/svg">
<path d="M11 15H13V13H11V15ZM19 3H5C3.9 3 3 3.9 3 5V19C3 20.1 3.9 21 5 21H19C20.1 21 21 20.1 21 19V5C21 3.9 20.1 3 19 3ZM14 9H11V11H13C14.1 11 15 11.9 15 13V15C15 16.11 14.1 17 13 17H11C9.9 17 9 16.11 9 15V9C9 7.9 9.9 7 11 7H14C14.55 7 15 7.45 15 8C15 8.55 14.55 9 14 9Z" fill="#323232"/>
</svg>
