<svg width="24" height="24" viewBox="0 0 24 24" fill="none" xmlns="http://www.w3.org/2000/svg">
<path d="M18.05 21.29C17.66 21.68 17.03 21.68 16.64 21.29L14.52 19.17C14.13 18.78 14.13 18.15 14.52 17.76C14.91 17.37 15.54 17.37 15.93 17.76L17.34 19.17L20.88 15.63C21.27 15.24 21.9 15.24 22.29 15.63C22.68 16.02 22.68 16.65 22.29 17.04L18.05 21.29ZM12.08 20H4C2.9 20 2 19.1 2 18V6C2 4.9 2.9 4 4 4H20C21.1 4 22 4.9 22 6V12.68C21.09 12.25 20.08 12 19 12C15.13 12 12 15.13 12 19C12 19.34 12.03 19.67 12.08 20ZM11.47 12.67C11.79 12.87 12.21 12.87 12.53 12.67L19.6 8.25C19.85 8.09 20 7.82 20 7.53C20 6.86 19.27 6.46 18.7 6.81L12 11L5.3 6.81C4.73 6.46 4 6.86 4 7.53C4 7.82 4.15 8.09 4.4 8.25L11.47 12.67Z" fill="#323232"/>
</svg>
