<svg width="24" height="24" viewBox="0 0 24 24" fill="none" xmlns="http://www.w3.org/2000/svg">
<path d="M18 2H6C4.9 2 4 2.9 4 4V20C4 21.1 4.9 22 6 22H18C19.1 22 20 21.1 20 20V4C20 2.9 19.1 2 18 2ZM6 4H11V12L8.5 10.5L6 12V4ZM6.63 18.19L8.62 15.63C8.82 15.38 9.2 15.37 9.4 15.62L11.14 17.72L13.74 14.38C13.94 14.12 14.34 14.12 14.53 14.39L17.4 18.21C17.65 18.54 17.41 19.01 17 19.01H7.02C6.61 19 6.37 18.52 6.63 18.19Z" fill="#323232"/>
</svg>
