<svg width="24" height="24" viewBox="0 0 24 24" fill="none" xmlns="http://www.w3.org/2000/svg">
<path d="M18 11H12C11.45 11 11 11.45 11 12V16C11 16.55 11.45 17 12 17H18C18.55 17 19 16.55 19 16V12C19 11.45 18.55 11 18 11ZM23 19V4.98C23 3.88 22.1 3 21 3H3C1.9 3 1 3.88 1 4.98V19C1 20.1 1.9 21 3 21H21C22.1 21 23 20.1 23 19ZM20 19.02H4C3.45 19.02 3 18.57 3 18.02V5.97C3 5.42 3.45 4.97 4 4.97H20C20.55 4.97 21 5.42 21 5.97V18.02C21 18.57 20.55 19.02 20 19.02Z" fill="#323232"/>
</svg>
