<svg width="24" height="24" viewBox="0 0 24 24" fill="none" xmlns="http://www.w3.org/2000/svg">
<path d="M21 18C21.55 18 22 17.55 22 17V11C22 10.45 21.55 10 21 10C20.45 10 20 10.45 20 11V17C20 17.55 20.45 18 21 18ZM20 22H22V20H20V22ZM4.40999 22H18V11C18 9.34002 19.34 8.00002 21 8.00002H22V4.41002C22 3.52002 20.92 3.07002 20.29 3.70002L3.70999 20.29C3.07999 20.92 3.51999 22 4.40999 22Z" fill="#323232"/>
</svg>
